Redes
…
graph <- play_erdos_renyi(n = 10, p = 0.2) |> 
  activate(nodes) |> 
  mutate(class = sample(letters[1:4], n(), replace = TRUE)) |> 
  activate(edges) |> 
  arrange(.N()$class[from])

graph

# A tbl_graph: 10 nodes and 21 edges
#
# A directed simple graph with 1 component
#
# A tibble: 21 × 2
   from    to
  <int> <int>
1     6     1
2     9     1
3     6     2
4     9     5
5     6    10
6     9     7
# ℹ 15 more rows
#
# A tibble: 10 × 1
  class
  <chr>
1 a    
2 c    
3 b    
# ℹ 7 more rows
…
hs_graph <- as_tbl_graph(highschool, directed = FALSE)
hs_graph

# A tbl_graph: 70 nodes and 506 edges
#
# An undirected multigraph with 1 component
#
# A tibble: 70 × 1
  name 
  <chr>
1 1    
2 2    
3 3    
4 4    
5 5    
6 6    
# ℹ 64 more rows
#
# A tibble: 506 × 3
   from    to  year
  <int> <int> <dbl>
1     1    13  1957
2     1    14  1957
3     1    20  1957
# ℹ 503 more rows

luv_clust <- hclust(dist(luv_colours[, 1:3]))
luv_graph <- as_tbl_graph(luv_clust)
luv_graph

# A tbl_graph: 1313 nodes and 1312 edges
#
# A rooted tree
#
# A tibble: 1,313 × 4
  height leaf  label members
   <dbl> <lgl> <chr>   <int>
1     0  TRUE  "101"       1
2     0  TRUE  "427"       1
3   778. FALSE ""          2
4     0  TRUE  "571"       1
5     0  TRUE  "426"       1
6     0  TRUE  "424"       1
# ℹ 1,307 more rows
#
# A tibble: 1,312 × 2
   from    to
  <int> <int>
1     3     1
2     3     2
3     8     6
# ℹ 1,309 more rows
…
Algorítmos

tidygraph tiene soporte para muchos algoritmos como por ejemplo calculos de centralidad, ranking, agrupamiento. El API del algoritmo está diseñado para ser usado dentro de mutate() y siempre devuelve un vector.

graph |> 
  activate(nodes) |> 
  mutate(centrality = centrality_pagerank()) |> 
  arrange(desc(centrality))

# A tbl_graph: 10 nodes and 21 edges
#
# A directed simple graph with 1 component
#
# A tibble: 10 × 2
  class centrality
  <chr>      <dbl>
1 b         0.197 
2 c         0.143 
3 c         0.125 
4 a         0.117 
5 a         0.112 
6 c         0.0913
# ℹ 4 more rows
#
# A tibble: 21 × 2
   from    to
  <int> <int>
1    10     5
2     4     5
3    10     7
# ℹ 18 more rows
…
